account_number,customer_id,account_type,balance
9574137535,AA001,Normal,2051.13
9106842725,AA002,Student,1537.38
9277905086,AA003,Saving,6304.46
9803153746,AA004,Normal,6614.41
9525211557,AA001,Normal,1151.33
9006070182,AA012,Normal,3595.71
9007909905,AA013,Student,2369.11
9613581656,AA014,Student,4000.04
9053001786,AA015,Student,6873.84
9250627218,AA016,Student,388.28
9637732169,AA009,Normal,207.7
9679486991,AA012,Saving,197
9122756836,AA013,Normal,581.49
9392591958,AA014,Normal,3835.14
9339743150,AA015,Student,5000.02
9741112071,AA016,Student,7448.56
9053711554,AA017,Normal,2002.28
9637752853,AA018,Normal,7542.93
9160935361,AA019,Normal,2251.43
9282560811,AA020,Normal,4117.13
9139429747,AA021,Normal,3790.64
9408848215,AA022,Normal,7292.29
9713783740,AA023,Normal,6274.48
9817251257,AA024,Normal,5170.82
9778368402,AA013,Student,5254.98
9180714679,AA005,Student,7430.86
9853428626,AA006,Normal,3509.34
9240783432,AA007,Normal,2946.18
9474630153,AA008,Normal,6276.62
9933249109,AA009,Student,1881.08
9606679404,AA010,Normal,6807.57
9329148856,AA011,Saving,2781.26
9769749259,AA024,Normal,6324.92
9387441297,AA013,Student,2567.99
9766513869,AA005,Student,3470.5
9588568394,AA006,Student,6007.71
9556098736,AA007,Student,714.36
9170466379,AA008,Normal,3315.45
9532131326,AA009,Student,790.1
9423446224,AA024,Normal,1514.7
9117886764,AA013,Normal,5881.97
9171333860,AA005,Student,1093.65
9472535994,AA007,Saving,5960.64
9489506437,AA008,Normal,6837.38
9739876701,AA009,Normal,2010.83
9703887466,AA024,Normal,2473.7
9738931489,AA013,Normal,6105.68
9302688509,AA016,Normal,542.92
9472647151,AA009,Normal,333.88
9910267651,AA012,Saving,2246.58
9636324714,AA013,Normal,1435.53
9917507359,AA001,Student,4207.26
9321655045,AA002,Saving,1371.73
9857129843,AA003,Normal,3205.73
9960029161,AA004,Normal,6840.84
9271385350,AA006,Normal,3895.8
9199612897,AA007,Saving,282.31
9971543947,AA008,Student,1325.45
9290598108,AA009,Normal,4944.01
9641840026,AA010,Normal,2582.13
9026940758,AA024,Normal,3466.95
9190690539,AA013,Normal,462.79
9555465438,AA005,Student,2130.42
9049563021,AA006,Saving,897.24
9413290498,AA007,Normal,7975.38
9395870409,AA008,Normal,6058.7
9313472676,AA009,Normal,289.36
9686495998,AA009,Normal,5642.53
9519400453,AA010,Student,1413.8
9246078021,AA011,Saving,5075.17
9057632449,AA024,Normal,3995.89
9920568533,AA013,Normal,5346.76
